<svg width="65" height="65" viewBox="0 0 65 65" fill="none" xmlns="http://www.w3.org/2000/svg">
<path d="M37.9168 5.41669H16.2502C14.8136 5.41669 13.4358 5.98737 12.42 7.00319C11.4042 8.01901 10.8335 9.39676 10.8335 10.8334V54.1667C10.8335 57.1729 13.2439 59.5834 16.2502 59.5834H48.7502C51.7564 59.5834 54.1668 57.1729 54.1668 54.1667V21.6667L37.9168 5.41669ZM48.7502 54.1667H16.2502V10.8334H35.2085V24.375H48.7502V54.1667ZM27.0835 31.1459C27.0835 33.3938 25.2689 35.2084 23.021 35.2084C20.7731 35.2084 18.9585 33.3938 18.9585 31.1459C18.9585 28.8979 20.7731 27.0834 23.021 27.0834C25.2689 27.0834 27.0835 28.8979 27.0835 31.1459ZM43.3335 47.3959C43.3335 49.6438 41.5189 51.4584 39.271 51.4584C37.0231 51.4584 35.2085 49.6438 35.2085 47.3959C35.2085 45.1479 37.0231 43.3334 39.271 43.3334C41.5189 43.3334 43.3335 45.1479 43.3335 47.3959ZM43.3335 30.7396L22.6689 51.4584L18.9585 47.8021L39.6772 27.0834L43.3335 30.7396Z" fill="url(#paint0_linear)"/>
<defs>
<linearGradient id="paint0_linear" x1="32.5002" y1="5.41669" x2="32.5002" y2="59.5834" gradientUnits="userSpaceOnUse">
<stop stop-color="#48B3AB"/>
<stop offset="1" stop-color="#06505D" stop-opacity="0.89"/>
</linearGradient>
</defs>
</svg>
