<svg width="163" height="159" viewBox="0 0 163 159" fill="none" xmlns="http://www.w3.org/2000/svg">
<path d="M15.2812 14.9062H56.0312V4.96875H5.09375V54.6562H15.2812V14.9062Z" fill="#BDB8B8"/>
<path d="M56.0312 54.6562V24.8438H25.4688V54.6562H56.0312ZM35.6562 34.7812H45.8438V44.7188H35.6562V34.7812Z" fill="#BDB8B8"/>
<path d="M104.422 14.9062H147.719V54.6562H157.906V4.96875H104.422V14.9062Z" fill="#BDB8B8"/>
<path d="M137.531 54.6562V24.8438H106.969V54.6562H137.531ZM117.156 34.7812H127.344V44.7188H117.156V34.7812Z" fill="#BDB8B8"/>
<path d="M56.0312 144.094H15.2812V104.344H5.09375V154.031H56.0312V144.094Z" fill="#BDB8B8"/>
<path d="M56.0312 104.344H25.4688V134.156H56.0312V104.344ZM45.8438 124.219H35.6562V114.281H45.8438V124.219Z" fill="#BDB8B8"/>
<path d="M147.719 144.094H104.422V154.031H157.906V104.344H147.719V144.094Z" fill="#BDB8B8"/>
<path d="M86.5938 94.4062H127.344V114.281H137.531V84.4688H86.5938V94.4062Z" fill="#BDB8B8"/>
<path d="M137.531 134.156V124.219H76.4062V84.4688H25.4688V94.4062H66.2188V134.156H137.531Z" fill="#BDB8B8"/>
<path d="M66.2188 24.8438H76.4062V54.6562H66.2188V24.8438Z" fill="#BDB8B8"/>
<path d="M25.4688 74.5312H96.7812V24.8438H86.5938V64.5938H25.4688V74.5312Z" fill="#BDB8B8"/>
<path d="M106.969 64.5938H137.531V74.5312H106.969V64.5938Z" fill="#BDB8B8"/>
<path d="M106.969 104.344H117.156V114.281H106.969V104.344Z" fill="#BDB8B8"/>
<path d="M86.5938 104.344H96.7812V114.281H86.5938V104.344Z" fill="#BDB8B8"/>
</svg>
